cpu_top/rtl/waves.vcd
$date
	Thu Aug 29 18:44:09 2024
$end
$version
	Icarus Verilog
$end
$timescale
	1ps
$end
$scope module soc_tb $end
$var wire 6 ! addr [5:0] $end
$var wire 32 " data [31:0] $end
$var wire 1 # req_valid $end
$var wire 1 $ valid_data $end
$var wire 1 % we $end
$var reg 1 & clk $end
$var reg 1 ' reset $end
$scope module dut $end
$var wire 1 & clk $end
$var wire 1 ' reset $end
$var wire 1 ( we $end
$var wire 1 ) valid_data $end
$var wire 1 * req_valid $end
$var wire 32 + data [31:0] $end
$var wire 32 , addr [31:0] $end
$scope module Mem $end
$var wire 32 - Data [31:0] $end
$var wire 1 & clk $end
$var wire 1 ) data_valid $end
$var wire 1 ' reset $end
$var wire 1 * req_valid $end
$var wire 32 . addr [31:0] $end
$var wire 1 ( WE $end
$var reg 32 / data_reg [31:0] $end
$var reg 1 0 data_valid_reg $end
$var integer 32 1 i [31:0] $end
$upscope $end
$scope module core1 $end
$var wire 32 2 Addr [31:0] $end
$var wire 32 3 Data [31:0] $end
$var wire 1 & clk $end
$var wire 1 ) data_valid $end
$var wire 1 * req_valid $end
$var wire 1 ' reset $end
$var wire 1 4 stall_decode $end
$var wire 1 5 stall_fetch $end
$var wire 1 6 system_stall_wire $end
$var wire 1 ( we $end
$var wire 1 7 we_wire $end
$var wire 1 8 uop_valid_wrtbck $end
$var wire 1 9 uop_valid_fetch $end
$var wire 1 : uop_valid_exe $end
$var wire 1 ; source_not_ready_wire $end
$var wire 5 < rs2_wire [4:0] $end
$var wire 1 = rs2_valid_wire $end
$var wire 5 > rs1_wire [4:0] $end
$var wire 1 ? rs1_valid_wire $end
$var wire 1 @ req_valid_wire $end
$var wire 5 A rd_wire [4:0] $end
$var wire 1 B rd_valid_wire $end
$var wire 32 C opcode_wire [31:0] $end
$var wire 7 D instruction_type_wire [6:0] $end
$var wire 21 E immediate_wire [20:0] $end
$var wire 7 F funct7_wire [6:0] $end
$var wire 3 G funct3_wire [2:0] $end
$var wire 32 H data_src2_wire [31:0] $end
$var wire 1 I data_src2_valid $end
$var wire 32 J data_src1_wire [31:0] $end
$var wire 1 K data_src1_valid $end
$var wire 32 L addr_wire [31:0] $end
$var wire 32 M WrtBck_data_wire [31:0] $end
$var wire 5 N WrtBck_Addr_wire [4:0] $end
$var wire 1 O Wr_En_wire $end
$var wire 32 P Execution_Result_wire [31:0] $end
$scope module ArchRegistersInt_inst $end
$var wire 1 Q ReadP0Conflict $end
$var wire 1 R ReadP1Conflict $end
$var wire 1 S ReadWriteConflict $end
$var wire 1 & clk $end
$var wire 1 ' reset $end
$var wire 1 ; source_not_ready $end
$var wire 1 B we_pi $end
$var wire 1 O we_p2 $end
$var wire 1 I v_p1 $end
$var wire 1 K v_p0 $end
$var wire 1 T re_p1_conflict $end
$var wire 1 = re_p1 $end
$var wire 1 U re_p0_conflict $end
$var wire 1 ? re_p0 $end
$var wire 32 V dout_p1 [31:0] $end
$var wire 32 W dout_p0 [31:0] $end
$var wire 32 X din_p2 [31:0] $end
$var wire 5 Y addr_pi [4:0] $end
$var wire 5 Z addr_p2 [4:0] $end
$var wire 5 [ addr_p1 [4:0] $end
$var wire 5 \ addr_p0 [4:0] $end
$var reg 32 ] V_array [31:0] $end
$var reg 32 ^ a0 [31:0] $end
$var reg 32 _ a1 [31:0] $end
$var reg 32 ` a2 [31:0] $end
$var reg 32 a a3 [31:0] $end
$var reg 32 b a4 [31:0] $end
$var reg 32 c a5 [31:0] $end
$var reg 32 d a6 [31:0] $end
$var reg 32 e a7 [31:0] $end
$var reg 32 f dout_p0_reg [31:0] $end
$var reg 32 g dout_p1_reg [31:0] $end
$var reg 32 h gp [31:0] $end
$var reg 32 i ra [31:0] $end
$var reg 1 j re_p0_reg $end
$var reg 1 k re_p1_reg $end
$var reg 32 l s0 [31:0] $end
$var reg 32 m s1 [31:0] $end
$var reg 32 n s10 [31:0] $end
$var reg 32 o s11 [31:0] $end
$var reg 32 p s2 [31:0] $end
$var reg 32 q s3 [31:0] $end
$var reg 32 r s4 [31:0] $end
$var reg 32 s s5 [31:0] $end
$var reg 32 t s6 [31:0] $end
$var reg 32 u s7 [31:0] $end
$var reg 32 v s8 [31:0] $end
$var reg 32 w s9 [31:0] $end
$var reg 32 x sp [31:0] $end
$var reg 32 y t0 [31:0] $end
$var reg 32 z t1 [31:0] $end
$var reg 32 { t2 [31:0] $end
$var reg 32 | t3 [31:0] $end
$var reg 32 } t4 [31:0] $end
$var reg 32 ~ t5 [31:0] $end
$var reg 32 !" t6 [31:0] $end
$var reg 32 "" tp [31:0] $end
$var reg 1 #" v_p0_reg $end
$var reg 1 $" v_p1_reg $end
$var reg 32 %" zero [31:0] $end
$upscope $end
$scope module WriteBack_inst $end
$var wire 1 & clk $end
$var wire 1 ' reset $end
$var wire 1 8 uop_valid_in $end
$var wire 5 &" Rd_decode [4:0] $end
$var wire 32 '" Execution_Result [31:0] $end
$var reg 5 (" Rd_wb_exe01 [4:0] $end
$var reg 5 )" Rd_wb_exe02 [4:0] $end
$var reg 1 O Wr_En $end
$var reg 5 *" WrtBck_Addr [4:0] $end
$var reg 32 +" WrtBck_Data [31:0] $end
$upscope $end
$scope module decoder_inst $end
$var wire 1 & clk $end
$var wire 3 ," funct3 [2:0] $end
$var wire 7 -" funct7 [6:0] $end
$var wire 7 ." instruction_type [6:0] $end
$var wire 5 /" rd [4:0] $end
$var wire 1 B rd_valid $end
$var wire 1 ' reset $end
$var wire 1 ; source_not_ready $end
$var wire 1 4 system_stall $end
$var wire 1 0" uop_valid_decode $end
$var wire 1 : uop_valid_out $end
$var wire 1 9 uop_valid_in $end
$var wire 1 = rs2_valid $end
$var wire 5 1" rs2 [4:0] $end
$var wire 1 ? rs1_valid $end
$var wire 5 2" rs1 [4:0] $end
$var wire 32 3" instruction [31:0] $end
$var wire 21 4" immediate [20:0] $end
$var reg 3 5" funct3_reg [2:0] $end
$var reg 7 6" funct7_reg [6:0] $end
$var reg 21 7" immediate_reg [20:0] $end
$var reg 7 8" instruction_opcode [6:0] $end
$var reg 7 9" instruction_type_reg [6:0] $end
$var reg 5 :" rd_reg [4:0] $end
$var reg 1 ;" rd_valid_reg $end
$var reg 5 <" rs1_reg [4:0] $end
$var reg 1 ? rs1_valid_reg $end
$var reg 5 =" rs2_reg [4:0] $end
$var reg 1 = rs2_valid_reg $end
$var reg 1 >" uop_valid_in_1cyc $end
$var reg 1 ?" uop_valid_out_reg $end
$upscope $end
$scope module execution_inst $end
$var wire 32 @" Execution_Result [31:0] $end
$var wire 1 & clk $end
$var wire 32 A" data_src1 [31:0] $end
$var wire 32 B" data_src2 [31:0] $end
$var wire 3 C" funct3 [2:0] $end
$var wire 7 D" funct7 [6:0] $end
$var wire 21 E" immediate [20:0] $end
$var wire 7 F" instruction_type [6:0] $end
$var wire 1 ' reset $end
$var wire 1 G" result_valid_exe01 $end
$var wire 1 6 system_stall $end
$var wire 1 H" uop_is_add $end
$var wire 1 I" uop_is_logic $end
$var wire 1 : uop_valid_in $end
$var wire 1 J" uop_is_logic_nq $end
$var wire 1 K" uop_is_add_nq $end
$var wire 32 L" logical_value_exe01 [31:0] $end
$var wire 3 M" ctrl_logic [2:0] $end
$var wire 2 N" ctrl_adder [1:0] $end
$var wire 32 O" add_value_exe01 [31:0] $end
$var reg 32 P" Execution_Result_exe01 [31:0] $end
$var reg 32 Q" Execution_Result_exe02 [31:0] $end
$var reg 1 R" uop_valid_intermediate $end
$var reg 1 8 uop_valid_out $end
$scope module u_Adder_int $end
$var wire 32 S" add_value [31:0] $end
$var wire 1 & clk $end
$var wire 21 T" immediate [20:0] $end
$var wire 1 ' reset $end
$var wire 32 U" src1 [31:0] $end
$var wire 32 V" src2 [31:0] $end
$var wire 1 : uop_valid_in $end
$var wire 2 W" add_type [1:0] $end
$var reg 32 X" add_value_reg [31:0] $end
$var reg 32 Y" adder_src1 [31:0] $end
$var reg 32 Z" adder_src2 [31:0] $end
$var reg 32 [" src2_inp [31:0] $end
$upscope $end
$scope module u_Alu_ctrl $end
$var wire 1 & clk $end
$var wire 3 \" funct3 [2:0] $end
$var wire 7 ]" funct7 [6:0] $end
$var wire 7 ^" instruction_type [6:0] $end
$var wire 1 ' reset $end
$var wire 1 : uop_valid_in $end
$var reg 2 _" ctrl_adder [1:0] $end
$var reg 3 `" ctrl_logic [2:0] $end
$var reg 1 K" uop_is_add $end
$var reg 1 J" uop_is_logic $end
$upscope $end
$scope module u_logical_unit $end
$var wire 32 a" And_result [31:0] $end
$var wire 32 b" Or_result [31:0] $end
$var wire 32 c" Xor_result [31:0] $end
$var wire 1 & clk $end
$var wire 21 d" immediate [20:0] $end
$var wire 3 e" logic_type [2:0] $end
$var wire 32 f" logical_value [31:0] $end
$var wire 1 ' reset $end
$var wire 32 g" src1 [31:0] $end
$var wire 32 h" src2 [31:0] $end
$var wire 1 R" uop_valid_in $end
$var wire 32 i" logical_src2_inp [31:0] $end
$var reg 32 j" logical_src1 [31:0] $end
$var reg 32 k" logical_src2 [31:0] $end
$var reg 32 l" logical_value_reg [31:0] $end
$upscope $end
$upscope $end
$scope module u_fetch $end
$var wire 32 m" Data [31:0] $end
$var wire 1 & clk $end
$var wire 1 ) data_valid $end
$var wire 1 ' reset $end
$var wire 1 5 system_stall $end
$var wire 1 7 we $end
$var wire 1 @ req_valid $end
$var wire 32 n" Addr [31:0] $end
$var reg 32 o" Addr_reg [31:0] $end
$var reg 1 p" IR_v $end
$var reg 32 q" InstructionRegister [31:0] $end
$var reg 2 r" NextState [1:0] $end
$var reg 1 s" PC_v $end
$var reg 2 t" PresentState [1:0] $end
$var reg 32 u" ProgramCounter [31:0] $end
$var reg 32 v" opcode [31:0] $end
$var reg 1 @ req_valid_reg $end
$var reg 1 9 uop_valid_out $end
$var reg 1 7 we_reg $end
$upscope $end
$upscope $end
$upscope $end
$upscope $end
$scope module soc_tb $end
$scope module dut $end
$upscope $end
$upscope $end
$enddefinitions $end
#0
$dumpvars
bx v"
bx u"
bx t"
xs"
b0 r"
bx q"
xp"
bx o"
bx n"
bx m"
bx l"
bx k"
bx j"
bx i"
bx h"
bx g"
bx f"
bx e"
bx d"
bx c"
bx b"
bx a"
bx `"
bx _"
bx ^"
bx ]"
bx \"
bx ["
bx Z"
bx Y"
bx X"
bx W"
bx V"
bx U"
bx T"
bx S"
0R"
b0 Q"
b0 P"
bx O"
bx N"
bx M"
bx L"
xK"
xJ"
0I"
0H"
0G"
bx F"
bx E"
bx D"
bx C"
bx B"
bx A"
b0 @"
x?"
x>"
bx ="
bx <"
x;"
bx :"
bx 9"
bx 8"
bx 7"
bx 6"
bx 5"
bx 4"
bx 3"
bx 2"
bx 1"
x0"
bx /"
bx ."
bx -"
bx ,"
bx +"
bx *"
bx )"
bx ("
b0 '"
bx &"
bx %"
x$"
x#"
bx ""
bx !"
bx ~
bx }
bx |
bx {
bx z
bx y
bx x
bx w
bx v
bx u
bx t
bx s
bx r
bx q
bx p
bx o
bx n
bx m
bx l
xk
xj
bx i
bx h
bx g
bx f
bx e
bx d
bx c
bx b
bx a
bx `
bx _
bx ^
bx ]
bx \
bx [
bx Z
bx Y
bx X
bx W
bx V
xU
xT
xS
xR
xQ
b0 P
xO
bx N
bx M
bx L
xK
bx J
xI
bx H
bx G
bx F
bx E
bx D
bx C
xB
bx A
x@
x?
bx >
x=
bx <
x;
x:
x9
08
x7
z6
x5
x4
bx 3
bx 2
b1000000 1
00
bx /
bx .
bx -
bx ,
bx +
x*
0)
x(
1'
0&
z%
z$
z#
bz "
bz !
$end
#10000
0I
0S
0K
xB
x:
0T
0U
b0 i"
b0 c"
b0 b"
b0 a"
0R
0Q
b0 H
b0 V
b0 B"
b0 V"
b0 h"
b0 J
b0 W
b0 A"
b0 U"
b0 g"
b1000000 1
x9
b0 C
b0 3"
b0 v"
b0 8"
x?"
0;"
0=
0?
b0 A
b0 Y
b0 &"
b0 /"
b0 :"
b0 <
b0 [
b0 1"
b0 ="
b0 >
b0 \
b0 2"
b0 <"
b0 E
b0 4"
b0 7"
b0 E"
b0 T"
b0 d"
b0 F
b0 -"
b0 D"
b0 ]"
b0 6"
b0 G
b0 ,"
b0 C"
b0 \"
b0 5"
b0 D
b0 ."
b0 F"
b0 ^"
b0 9"
0>"
b0 M"
b0 `"
b0 e"
b0 N"
b0 W"
b0 _"
b0 L"
b0 f"
b0 l"
b0 k"
b0 j"
bx Z"
bx Y"
b0 )"
bx ("
0O
b0 M
b0 X
b0 +"
b0 N
b0 Z
b0 *"
xk
xj
b0 o
b0 n
b0 w
b0 v
b0 u
b0 t
b0 s
b0 r
b0 q
b0 p
b0 e
b0 d
b0 c
b0 b
b0 a
b0 `
b0 _
b0 ^
b0 g
b0 f
b0 m
b0 l
b0 !"
b0 ~
b0 }
b0 |
b0 {
b0 z
b0 y
b0 ""
b0 h
b0 x
b0 i
b0 %"
0$"
0#"
b11111111111111111111111111111111 ]
1&
#20000
0&
#30000
04
05
0;
xB
x:
b1000000 1
0k
0j
b0 ("
bx Z"
b0 Y"
x?"
x9
1&
#40000
0&
#50000
xG"
xI"
xH"
xR"
b0 t"
x>"
1&
0'
#60000
0&
#70000
x8
b1 t"
b1 r"
0(
07
0p"
1s"
b0 q"
b0 u"
1&
#80000
0&
#90000
00"
1)
10
b101000000000001100010011 +
b101000000000001100010011 -
b101000000000001100010011 3
b101000000000001100010011 m"
b101000000000001100010011 /
b11 t"
b11 r"
0s"
1*
1@
b0 ,
b0 .
b0 2
b0 L
b0 n"
b0 o"
09
1&
#100000
0&
#110000
0B
0:
0?"
b10 t"
b10 r"
0>"
1&
#120000
0&
#130000
0G"
0I"
0H"
0R"
b1 t"
b1 r"
0*
0@
1s"
b1 u"
1p"
b101000000000001100010011 q"
1&
#140000
0&
#150000
08
10"
b11 t"
b11 r"
0p"
0s"
1*
1@
b1 ,
b1 .
b1 2
b1 L
b1 n"
b1 o"
1>"
19
b101000000000001100010011 C
b101000000000001100010011 3"
b101000000000001100010011 v"
1&
#160000
0&
#170000
1B
1:
1?"
00"
1U
b1010000000000001110010011 +
b1010000000000001110010011 -
b1010000000000001110010011 3
b1010000000000001110010011 m"
b1010000000000001110010011 /
b10 t"
b10 r"
09
b10011 D
b10011 ."
b10011 F"
b10011 ^"
b10011 9"
1;"
1?
b1010 E
b1010 4"
b1010 7"
b1010 E"
b1010 T"
b1010 d"
b110 A
b110 Y
b110 &"
b110 /"
b110 :"
b10011 8"
1&
#180000
0&
#190000
1G"
b1010 P"
1H"
1R"
b110 ("
0?"
0B
0:
00"
04
05
0;
1K
b1 t"
b1 r"
0*
0@
1s"
b10 u"
1p"
b1010000000000001110010011 q"
b11111111111111111111111110111111 ]
1#"
1j
b1010 O"
b1010 S"
b1010 X"
b1010 Z"
b1010 ["
0J"
b11 N"
b11 W"
b11 _"
1K"
0>"
1&
#200000
0&
#210000
0G"
0H"
18
0R"
b1010 P
b1010 '"
b1010 @"
b1010 Q"
b110 )"
10"
b11100110000111000110011 +
b11100110000111000110011 -
b11100110000111000110011 3
b11100110000111000110011 m"
b11100110000111000110011 /
b11 t"
b11 r"
0p"
0s"
1*
1@
b10 ,
b10 .
b10 2
b10 L
b10 n"
b10 o"
19
b1010000000000001110010011 C
b1010000000000001110010011 3"
b1010000000000001110010011 v"
1&
#220000
0&
#230000
1B
1:
08
b111 ("
1?"
00"
b10 t"
b10 r"
b11111111111111111111111111111111 ]
b1010 z
1O
b1010 M
b1010 X
b1010 +"
b110 N
b110 Z
b110 *"
b10100 E
b10100 4"
b10100 7"
b10100 E"
b10100 T"
b10100 d"
b111 A
b111 Y
b111 &"
b111 /"
b111 :"
09
1&
#240000
0&
#250000
1G"
b10100 P"
1H"
0B
0:
1R"
0?"
b111 )"
b1 t"
b1 r"
0*
0@
1s"
b11 u"
1p"
b11100110000111000110011 q"
b10100 O"
b10100 S"
b10100 X"
b10100 Z"
b10100 ["
0O
b11111111111111111111111101111111 ]
1&
#260000
0&
#270000
0G"
0H"
b10100 P
b10100 '"
b10100 @"
b10100 Q"
0R"
18
10"
b11 t"
b11 r"
0p"
0s"
1*
1@
b11 ,
b11 .
b11 2
b11 L
b11 n"
b11 o"
1>"
19
b11100110000111000110011 C
b11100110000111000110011 3"
b11100110000111000110011 v"
1&
#280000
0&
#290000
08
1?"
14
15
1;
b10100 i"
1S
b10100 H
b10100 V
b10100 B"
b10100 V"
b10100 h"
1I
1R
10"
0T
b1000000011000111000111010110011 +
b1000000011000111000111010110011 -
b1000000011000111000111010110011 3
b1000000011000111000111010110011 m"
b1000000011000111000111010110011 /
b10 t"
b10 r"
09
b110011 D
b110011 ."
b110011 F"
b110011 ^"
b110011 9"
1=
b11100 A
b11100 Y
b11100 &"
b11100 /"
b11100 :"
b111 <
b111 [
b111 1"
b111 ="
b110 >
b110 \
b110 2"
b110 <"
b0 G
b0 ,"
b0 C"
b0 \"
b0 5"
b110011 8"
1O
b10100 M
b10100 X
b10100 +"
b111 N
b111 Z
b111 *"
1&
#300000
0&
#310000
b11100 ("
0B
0:
10"
b0 i"
14
15
1;
0S
1T
b0 H
b0 V
b0 B"
b0 V"
b0 h"
0I
b1010 J
b1010 W
b1010 A"
b1010 U"
b1010 g"
0R
b10100 c"
b10100 b"
b1010 f
1k
0O
b10100 k"
0>"
1&
#320000
0&
#330000
b11100 )"
b1010 c"
b1010 b"
b0 k"
b1010 j"
b11110 O"
b11110 S"
b11110 X"
b1010 Y"
1&
