cpu_top/rtl/sim/waves_bkup.vcd
$date
	Sun Aug 11 23:57:35 2024
$end
$version
	Icarus Verilog
$end
$timescale
	1ps
$end
$scope module SOC_tb $end
$var wire 6 ! addr [5:0] $end
$var wire 32 " data [31:0] $end
$var wire 1 # req_valid $end
$var wire 1 $ valid_data $end
$var wire 1 % we $end
$var reg 1 & clk $end
$var reg 1 ' reset $end
$scope module dut $end
$var wire 1 & clk $end
$var wire 1 ' reset $end
$var wire 1 ( we $end
$var wire 1 ) valid_data $end
$var wire 1 * req_valid $end
$var wire 32 + data [31:0] $end
$var wire 6 , addr [5:0] $end
$scope module Mem $end
$var wire 32 - Data [31:0] $end
$var wire 6 . addr [5:0] $end
$var wire 1 & clk $end
$var wire 1 ) data_valid $end
$var wire 1 ' reset $end
$var wire 1 * req_valid $end
$var wire 1 ( WE $end
$var reg 32 / data_reg [31:0] $end
$var reg 1 0 data_valid_reg $end
$var integer 32 1 i [31:0] $end
$upscope $end
$scope module core1 $end
$var wire 32 2 Addr [31:0] $end
$var wire 32 3 Data [31:0] $end
$var wire 1 & clk $end
$var wire 1 ) data_valid $end
$var wire 1 * req_valid $end
$var wire 1 ' reset $end
$var wire 1 4 system_stall_wire $end
$var wire 1 ( we $end
$var wire 1 5 we_wire $end
$var wire 1 6 source_not_ready_wire $end
$var wire 5 7 rs2_wire [4:0] $end
$var wire 1 8 rs2_valid_wire $end
$var wire 5 9 rs1_wire [4:0] $end
$var wire 1 : rs1_valid_wire $end
$var wire 1 ; req_valid_wire $end
$var wire 5 < rd_wire [4:0] $end
$var wire 1 = rd_valid_wire $end
$var wire 32 > opcode_wire [31:0] $end
$var wire 7 ? instruction_type_wire [6:0] $end
$var wire 21 @ immediate_wire [20:0] $end
$var wire 7 A funct7_wire [6:0] $end
$var wire 3 B funct3_wire [2:0] $end
$var wire 1 C decoder_stall_wire $end
$var wire 32 D data_src2_wire [31:0] $end
$var wire 1 E data_src2_valid $end
$var wire 32 F data_src1_wire [31:0] $end
$var wire 1 G data_src1_valid $end
$var wire 32 H addr_wire [31:0] $end
$var wire 32 I WrtBck_data_wire [31:0] $end
$var wire 5 J WrtBck_Addr_wire [4:0] $end
$var wire 1 K Wr_En_wire $end
$var wire 1 L Result_valid_wire $end
$var wire 32 M Execution_Result_wire [31:0] $end
$scope module ArchRegistersInt_inst $end
$var wire 1 N ReadP0Conflict $end
$var wire 1 O ReadP1Conflict $end
$var wire 1 P ReadWriteConflict $end
$var wire 1 & clk $end
$var wire 1 ' reset $end
$var wire 1 6 source_not_ready $end
$var wire 1 = we_pi $end
$var wire 1 K we_p2 $end
$var wire 1 E v_p1 $end
$var wire 1 G v_p0 $end
$var wire 1 Q re_p1_reg $end
$var wire 1 8 re_p1 $end
$var wire 1 R re_p0_reg $end
$var wire 1 : re_p0 $end
$var wire 32 S dout_p1 [31:0] $end
$var wire 32 T dout_p0 [31:0] $end
$var wire 32 U din_p2 [31:0] $end
$var wire 5 V addr_pi [4:0] $end
$var wire 5 W addr_p2 [4:0] $end
$var wire 5 X addr_p1 [4:0] $end
$var wire 5 Y addr_p0 [4:0] $end
$var reg 32 Z V_array [31:0] $end
$var reg 32 [ a0 [31:0] $end
$var reg 32 \ a1 [31:0] $end
$var reg 32 ] a2 [31:0] $end
$var reg 32 ^ a3 [31:0] $end
$var reg 32 _ a4 [31:0] $end
$var reg 32 ` a5 [31:0] $end
$var reg 32 a a6 [31:0] $end
$var reg 32 b a7 [31:0] $end
$var reg 32 c dout_p0_reg [31:0] $end
$var reg 32 d dout_p1_reg [31:0] $end
$var reg 32 e gp [31:0] $end
$var reg 32 f ra [31:0] $end
$var reg 32 g s0 [31:0] $end
$var reg 32 h s1 [31:0] $end
$var reg 32 i s10 [31:0] $end
$var reg 32 j s11 [31:0] $end
$var reg 32 k s2 [31:0] $end
$var reg 32 l s3 [31:0] $end
$var reg 32 m s4 [31:0] $end
$var reg 32 n s5 [31:0] $end
$var reg 32 o s6 [31:0] $end
$var reg 32 p s7 [31:0] $end
$var reg 32 q s8 [31:0] $end
$var reg 32 r s9 [31:0] $end
$var reg 32 s sp [31:0] $end
$var reg 32 t t0 [31:0] $end
$var reg 32 u t1 [31:0] $end
$var reg 32 v t2 [31:0] $end
$var reg 32 w t3 [31:0] $end
$var reg 32 x t4 [31:0] $end
$var reg 32 y t5 [31:0] $end
$var reg 32 z t6 [31:0] $end
$var reg 32 { tp [31:0] $end
$var reg 1 | v_p0_reg $end
$var reg 1 } v_p1_reg $end
$var reg 32 ~ zero [31:0] $end
$upscope $end
$scope module WriteBack_inst $end
$var wire 1 & clk $end
$var wire 1 ' reset $end
$var wire 1 L Result_Valid $end
$var wire 5 !" Rd_decode [4:0] $end
$var wire 32 "" Execution_Result [31:0] $end
$var reg 5 #" Rd_wb_exe01 [4:0] $end
$var reg 5 $" Rd_wb_exe02 [4:0] $end
$var reg 1 K Wr_En $end
$var reg 5 %" WrtBck_Addr [4:0] $end
$var reg 32 &" WrtBck_Data [31:0] $end
$upscope $end
$scope module decoder_inst $end
$var wire 1 & clk $end
$var wire 1 C decoder_stall $end
$var wire 3 '" funct3 [2:0] $end
$var wire 7 (" funct7 [6:0] $end
$var wire 7 )" instruction_type [6:0] $end
$var wire 5 *" rd [4:0] $end
$var wire 1 = rd_valid $end
$var wire 1 ' reset $end
$var wire 1 4 system_stall $end
$var wire 1 8 rs2_valid $end
$var wire 5 +" rs2 [4:0] $end
$var wire 1 : rs1_valid $end
$var wire 5 ," rs1 [4:0] $end
$var wire 7 -" instruction_opcode [6:0] $end
$var wire 32 ." instruction [31:0] $end
$var wire 21 /" immediate [20:0] $end
$var reg 3 0" funct3_reg [2:0] $end
$var reg 7 1" funct7_reg [6:0] $end
$var reg 21 2" immediate_reg [20:0] $end
$var reg 7 3" instruction_type_reg [6:0] $end
$var reg 5 4" rd_reg [4:0] $end
$var reg 1 5" rd_valid_reg $end
$var reg 5 6" rs1_reg [4:0] $end
$var reg 1 : rs1_valid_reg $end
$var reg 5 7" rs2_reg [4:0] $end
$var reg 1 8 rs2_valid_reg $end
$upscope $end
$scope module execution_inst $end
$var wire 32 8" Execution_Result [31:0] $end
$var wire 1 & clk $end
$var wire 32 9" data_src1 [31:0] $end
$var wire 32 :" data_src2 [31:0] $end
$var wire 3 ;" funct3 [2:0] $end
$var wire 7 <" funct7 [6:0] $end
$var wire 21 =" immediate [20:0] $end
$var wire 7 >" instruction_type [6:0] $end
$var wire 1 ' reset $end
$var wire 1 ?" result_valid_exe01 $end
$var wire 1 4 system_stall $end
$var wire 1 @" uop_is_logic $end
$var wire 1 A" uop_is_add $end
$var wire 32 B" logical_value_exe01 [31:0] $end
$var wire 3 C" ctrl_logic [2:0] $end
$var wire 2 D" ctrl_adder [1:0] $end
$var wire 32 E" add_value_exe01 [31:0] $end
$var reg 32 F" Execution_Result_exe01 [31:0] $end
$var reg 32 G" Execution_Result_exe02 [31:0] $end
$var reg 1 L Result_valid $end
$scope module u_Adder_int $end
$var wire 32 H" add_value [31:0] $end
$var wire 1 & clk $end
$var wire 21 I" immediate [20:0] $end
$var wire 1 ' reset $end
$var wire 32 J" src1 [31:0] $end
$var wire 32 K" src2 [31:0] $end
$var wire 2 L" add_type [1:0] $end
$var reg 32 M" add_value_reg [31:0] $end
$var reg 32 N" adder_src1 [31:0] $end
$var reg 32 O" adder_src2 [31:0] $end
$var reg 32 P" src2_inp [31:0] $end
$upscope $end
$scope module u_Alu_ctrl $end
$var wire 1 & clk $end
$var wire 3 Q" funct3 [2:0] $end
$var wire 7 R" funct7 [6:0] $end
$var wire 7 S" instruction_type [6:0] $end
$var wire 1 ' reset $end
$var reg 2 T" ctrl_adder [1:0] $end
$var reg 3 U" ctrl_logic [2:0] $end
$var reg 1 A" uop_is_add $end
$var reg 1 @" uop_is_logic $end
$upscope $end
$scope module u_logical_unit $end
$var wire 32 V" And_result [31:0] $end
$var wire 32 W" Or_result [31:0] $end
$var wire 32 X" Xor_result [31:0] $end
$var wire 1 & clk $end
$var wire 21 Y" immediate [20:0] $end
$var wire 3 Z" logic_type [2:0] $end
$var wire 32 [" logical_value [31:0] $end
$var wire 1 ' reset $end
$var wire 32 \" src1 [31:0] $end
$var wire 32 ]" src2 [31:0] $end
$var wire 32 ^" logical_src2_inp [31:0] $end
$var reg 32 _" logical_src1 [31:0] $end
$var reg 32 `" logical_src2 [31:0] $end
$var reg 32 a" logical_value_reg [31:0] $end
$upscope $end
$upscope $end
$scope module u_fetch $end
$var wire 32 b" Data [31:0] $end
$var wire 1 & clk $end
$var wire 1 ) data_valid $end
$var wire 1 ' reset $end
$var wire 1 5 we $end
$var wire 1 ; req_valid $end
$var wire 3 c" Addr [2:0] $end
$var reg 3 d" Addr_reg [2:0] $end
$var reg 1 e" IR_v $end
$var reg 32 f" InstructionRegister [31:0] $end
$var reg 2 g" NextState [1:0] $end
$var reg 1 h" PC_v $end
$var reg 2 i" PresentState [1:0] $end
$var reg 32 j" ProgramCounter [31:0] $end
$var reg 32 k" opcode [31:0] $end
$var reg 1 ; req_valid_reg $end
$var reg 1 5 we_reg $end
$upscope $end
$upscope $end
$upscope $end
$upscope $end
$scope module SOC_tb $end
$scope module dut $end
$upscope $end
$upscope $end
$enddefinitions $end
#0
$dumpvars
bx k"
bx j"
b0 i"
xh"
b0 g"
bx f"
xe"
bx d"
bx c"
bx b"
bx a"
bx `"
bx _"
bx ^"
bx ]"
bx \"
bx ["
bx Z"
bx Y"
bx X"
bx W"
bx V"
bx U"
bx T"
bx S"
bx R"
bx Q"
bx P"
bx O"
bx N"
bx M"
bx L"
bx K"
bx J"
bx I"
bx H"
b0 G"
b0 F"
bx E"
bx D"
bx C"
bx B"
xA"
x@"
x?"
bx >"
bx ="
bx <"
bx ;"
bx :"
bx 9"
b0 8"
bx 7"
bx 6"
x5"
bx 4"
bx 3"
bx 2"
bx 1"
bx 0"
bx /"
bx ."
bx -"
bx ,"
bx +"
bx *"
bx )"
bx ("
bx '"
bx &"
bx %"
b0 $"
b0 #"
b0 ""
bx !"
bx ~
x}
x|
bx {
bx z
bx y
bx x
bx w
bx v
bx u
bx t
bx s
bx r
bx q
bx p
bx o
bx n
bx m
bx l
bx k
bx j
bx i
bx h
bx g
bx f
bx e
bx d
bx c
bx b
bx a
bx `
bx _
bx ^
bx ]
bx \
bx [
bx Z
bx Y
bx X
bx W
bx V
bx U
bx T
bx S
xR
xQ
xP
xO
xN
b0 M
0L
xK
bx J
bx I
b0xxx H
xG
bx F
xE
bx D
0C
bx B
bx A
bx @
bx ?
bx >
x=
bx <
x;
x:
bx 9
x8
bx 7
x6
x5
04
bx 3
b0xxx 2
b1000000 1
00
bx /
b0xxx .
bx -
b0xxx ,
bx +
x*
0)
x(
1'
0&
z%
z$
z#
bz "
bz !
$end
#10000
06
0E
0P
0G
b0 -"
0Q
0R
b0 ^"
0?"
b0 X"
b0 W"
b0 V"
0O
0N
b0 D
b0 S
b0 :"
b0 K"
b0 ]"
b0 F
b0 T
b0 9"
b0 J"
b0 \"
b1000000 1
b1 i"
b1 g"
0(
05
0e"
1h"
b0 f"
b0 j"
b0 >
b0 ."
b0 k"
0=
05"
08
0:
b0 <
b0 V
b0 !"
b0 *"
b0 4"
b0 7
b0 X
b0 +"
b0 7"
b0 9
b0 Y
b0 ,"
b0 6"
b0 @
b0 /"
b0 2"
b0 ="
b0 I"
b0 Y"
b0 A
b0 ("
b0 <"
b0 R"
b0 1"
b0 B
b0 '"
b0 ;"
b0 Q"
b0 0"
b0 ?
b0 )"
b0 >"
b0 S"
b0 3"
0@"
0A"
b0 C"
b0 U"
b0 Z"
b0 D"
b0 L"
b0 T"
b0 B"
b0 ["
b0 a"
b0 `"
b0 _"
b0 P"
b0 O"
bx N"
0K
b0 I
b0 U
b0 &"
b0 J
b0 W
b0 %"
b0 j
b0 i
b0 r
b0 q
b0 p
b0 o
b0 n
b0 m
b0 l
b0 k
b0 b
b0 a
b0 `
b0 _
b0 ^
b0 ]
b0 \
b0 [
b0 d
b0 c
b0 h
b0 g
b0 z
b0 y
b0 x
b0 w
b0 v
b0 u
b0 t
b0 {
b0 e
b0 s
b0 f
b0 ~
0}
0|
b0 Z
1&
#20000
0&
#30000
b0 ,
b0 .
b11 i"
0h"
1*
1;
b0 2
b0 H
b0 c"
b0 d"
b11 g"
b1000000 1
b0 E"
b0 H"
b0 M"
b0 N"
1&
#40000
0&
#50000
1)
10
b101000111000001100010011 +
b101000111000001100010011 -
b101000111000001100010011 3
b101000111000001100010011 b"
b101000111000001100010011 /
1&
0'
#60000
0&
#70000
b10 i"
b10 g"
1&
#80000
0&
#90000
b1 i"
b1 g"
0*
0;
1h"
b1 j"
1e"
b101000111000001100010011 f"
1&
#100000
0&
#110000
b1 ,
b1 .
b10011 -"
b11 i"
b11 g"
0e"
0h"
1*
1;
b1 2
b1 H
b1 c"
b1 d"
b101000111000001100010011 >
b101000111000001100010011 ."
b101000111000001100010011 k"
1&
#120000
0&
#130000
b110 #"
16
1R
b1010000000000001110010011 +
b1010000000000001110010011 -
b1010000000000001110010011 3
b1010000000000001110010011 b"
b1010000000000001110010011 /
b10 i"
b10 g"
b10011 ?
b10011 )"
b10011 >"
b10011 S"
b10011 3"
1=
15"
1:
b1010 @
b1010 /"
b1010 2"
b1010 ="
b1010 I"
b1010 Y"
b110 <
b110 V
b110 !"
b110 *"
b110 4"
b111 9
b111 Y
b111 ,"
b111 6"
1&
#140000
0&
#150000
b110 $"
b1010 F"
1?"
b1 i"
b1 g"
0*
0;
1h"
b10 j"
1e"
b1010000000000001110010011 f"
b1010 E"
b1010 H"
b1010 M"
b1010 O"
b1010 P"
b11 D"
b11 L"
b11 T"
1A"
1&
#160000
0&
#170000
1L
b1010 M
b1010 ""
b1010 8"
b1010 G"
b10 ,
b10 .
b11 i"
b11 g"
0e"
0h"
1*
1;
b10 2
b10 H
b10 c"
b10 d"
b1010000000000001110010011 >
b1010000000000001110010011 ."
b1010000000000001110010011 k"
1&
#180000
0&
#190000
b111 #"
b10100 F"
b10 i"
b10 g"
b11100110000111000110011 +
b11100110000111000110011 -
b11100110000111000110011 3
b11100110000111000110011 b"
b11100110000111000110011 /
b1000000 Z
b1010 u
1K
b1010 I
b1010 U
b1010 &"
b110 J
b110 W
b110 %"
b10100 E"
b10100 H"
b10100 M"
b10100 O"
b10100 P"
b10100 @
b10100 /"
b10100 2"
b10100 ="
b10100 I"
b10100 Y"
b111 <
b111 V
b111 !"
b111 *"
b111 4"
b0 9
b0 Y
b0 ,"
b0 6"
1&
#200000
0&
#210000
b111 $"
b10100 M
b10100 ""
b10100 8"
b10100 G"
b1 i"
b1 g"
0*
0;
1h"
b11 j"
1e"
b11100110000111000110011 f"
1&
#220000
0&
#230000
b11100 #"
06
b11 ,
b11 .
1G
b1010 F
b1010 T
b1010 9"
b1010 J"
b1010 \"
b111 F"
b110011 -"
b11 i"
b11 g"
0e"
0h"
1*
1;
b11 2
b11 H
b11 c"
b11 d"
b11000000 Z
1|
b10100 v
b1010 c
b10100 I
b10100 U
b10100 &"
b111 J
b111 W
b111 %"
b111 E"
b111 H"
b111 M"
b111 O"
b111 P"
b111 @
b111 /"
b111 2"
b111 ="
b111 I"
b111 Y"
b11100 <
b11100 V
b11100 !"
b11100 *"
b11100 4"
b110 9
b110 Y
b110 ,"
b110 6"
b11100110000111000110011 >
b11100110000111000110011 ."
b11100110000111000110011 k"
1&
#240000
0&
#250000
b11100 $"
b111 M
b111 ""
b111 8"
b111 G"
b10100 ^"
1P
b10100 D
b10100 S
b10100 :"
b10100 K"
b10100 ]"
1E
06
1O
0Q
b1010 X"
b1010 W"
b10001 F"
b1000000011000111000111010110011 +
b1000000011000111000111010110011 -
b1000000011000111000111010110011 3
b1000000011000111000111010110011 b"
b1000000011000111000111010110011 /
b10 i"
b10 g"
b110011 ?
b110011 )"
b110011 >"
b110011 S"
b110011 3"
18
b111 7
b111 X
b111 +"
b111 7"
b0 B
b0 '"
b0 ;"
b0 Q"
b0 0"
b1010 _"
b10001 E"
b10001 H"
b10001 M"
b1010 N"
1&
#260000
0&
#270000
b10001 M
b10001 ""
b10001 8"
b10001 G"
16
0P
1Q
0E
b0 ^"
0O
b0 D
b0 S
b0 :"
b0 K"
b0 ]"
b11110 F"
b11110 X"
b11110 W"
b1 i"
b1 g"
0*
0;
1h"
b100 j"
1e"
b1000000011000111000111010110011 f"
b111 w
b111 I
b111 U
b111 &"
b11100 J
b11100 W
b11100 %"
b11110 E"
b11110 H"
b11110 M"
b10100 O"
b10100 P"
b10100 `"
b1 D"
b1 L"
b1 T"
b0 B
b0 '"
b0 ;"
b0 Q"
b0 0"
1&
#280000
0&
#290000
b11110 M
b11110 ""
b11110 8"
b11110 G"
06
b10100 ^"
b100 ,
b100 .
b1010 X"
b1010 W"
b1010 F"
b10100 D
b10100 S
b10100 :"
b10100 K"
b10100 ]"
1E
b11 i"
b11 g"
0e"
0h"
1*
1;
b100 2
b100 H
b100 c"
b100 d"
b1000000011000111000111010110011 >
b1000000011000111000111010110011 ."
b1000000011000111000111010110011 k"
b0 B
b0 '"
b0 ;"
b0 Q"
b0 0"
b0 `"
b1010 E"
b1010 H"
b1010 M"
b0 O"
b0 P"
b10001 I
b10001 U
b10001 &"
b10100 d
1}
1&
#300000
0&
#310000
b1010 M
b1010 ""
b1010 8"
b1010 G"
b11101 #"
b1010 ^"
b1010 D
b1010 S
b1010 :"
b1010 K"
b1010 ]"
b10100 F
b10100 T
b10100 9"
b10100 J"
b10100 \"
b11111111111111111111111111110110 F"
b11110 X"
b11110 W"
b10 i"
b10 g"
b1110111100111111100110011 +
b1110111100111111100110011 -
b1110111100111111100110011 3
b1110111100111111100110011 b"
b1110111100111111100110011 /
b10000000000000000000011000000 Z
b11110 w
b1010 d
b10100 c
b11110 I
b11110 U
b11110 &"
b11111111111111111111111111110110 E"
b11111111111111111111111111110110 H"
b11111111111111111111111111110110 M"
b11111111111111111111111111101100 O"
b11111111111111111111111111101100 P"
b10100 `"
b10 D"
b10 L"
b10 T"
b100000 A
b100000 ("
b100000 <"
b100000 R"
b100000 1"
b11101 <
b11101 V
b11101 !"
b11101 *"
b11101 4"
b110 7
b110 X
b110 +"
b110 7"
b111 9
b111 Y
b111 ,"
b111 6"
b0 B
b0 '"
b0 ;"
b0 Q"
b0 0"
1&
#320000
0&
#330000
b11101 $"
b11111111111111111111111111110110 M
b11111111111111111111111111110110 ""
b11111111111111111111111111110110 8"
b11111111111111111111111111110110 G"
b1010 F"
b1 i"
b1 g"
0*
0;
1h"
b101 j"
1e"
b1110111100111111100110011 f"
b0 B
b0 '"
b0 ;"
b0 Q"
b0 0"
b1010 `"
b10100 _"
b1010 E"
b1010 H"
b1010 M"
b11111111111111111111111111110110 O"
b10100 N"
b11111111111111111111111111110110 P"
b1010 I
b1010 U
b1010 &"
1&
#340000
0&
#350000
b1010 M
b1010 ""
b1010 8"
b1010 G"
b11110 #"
06
1P
0Q
b11111111111111111111111111110110 ^"
1O
b101 ,
b101 .
1E
b11111111111111111111111111110110 D
b11111111111111111111111111110110 S
b11111111111111111111111111110110 :"
b11111111111111111111111111110110 K"
b11111111111111111111111111110110 ]"
b11110 F
b11110 T
b11110 9"
b11110 J"
b11110 \"
b0 F"
b11 i"
b11 g"
0e"
0h"
1*
1;
b101 2
b101 H
b101 c"
b101 d"
b110000000000000000000011000000 Z
0}
b11111111111111111111111111110110 x
b0 d
b11110 c
b11111111111111111111111111110110 I
b11111111111111111111111111110110 U
b11111111111111111111111111110110 &"
b11101 J
b11101 W
b11101 %"
b10100 E"
b10100 H"
b10100 M"
b0 O"
b0 P"
1@"
b11 C"
b11 U"
b11 Z"
b0 D"
b0 L"
b0 T"
0A"
b0 A
b0 ("
b0 <"
b0 R"
b0 1"
b11110 <
b11110 V
b11110 !"
b11110 *"
b11110 4"
b11101 7
b11101 X
b11101 +"
b11101 7"
b11100 9
b11100 Y
b11100 ,"
b11100 6"
b111 B
b111 '"
b111 ;"
b111 Q"
b111 0"
b1110111100111111100110011 >
b1110111100111111100110011 ."
b1110111100111111100110011 k"
1&
#360000
0&
#370000
b11110 $"
b0 M
b0 ""
b0 8"
b0 G"
b10110 F"
b10110 B"
b10110 ["
b10110 a"
b1010 ^"
b11111111111111111111111111101000 X"
b11111111111111111111111111111110 W"
b10110 V"
b1010 D
b1010 S
b1010 :"
b1010 K"
b1010 ]"
b1110111100100111110110011 +
b1110111100100111110110011 -
b1110111100100111110110011 3
b1110111100100111110110011 b"
b1110111100100111110110011 /
b10 i"
b10 g"
b111 B
b111 '"
b111 ;"
b111 Q"
b111 0"
b11111111111111111111111111110110 `"
b11110 _"
b11110 E"
b11110 H"
b11110 M"
b11110 N"
b1010 I
b1010 U
b1010 &"
1&
#380000
0&
#390000
b10110 M
b10110 ""
b10110 8"
b10110 G"
16
0P
1Q
0E
b1010 F"
b0 ^"
0O
b1010 B"
b1010 ["
b1010 a"
b0 D
b0 S
b0 :"
b0 K"
b0 ]"
b10100 X"
b11110 W"
b1010 V"
b1 i"
b1 g"
0*
0;
1h"
b110 j"
1e"
b1110111100100111110110011 f"
b0 I
b0 U
b0 &"
b11110 J
b11110 W
b11110 %"
b1010 `"
b111 B
b111 '"
b111 ;"
b111 Q"
b111 0"
1&
#400000
0&
#410000
b1010 M
b1010 ""
b1010 8"
b1010 G"
b0 F"
06
b0 B"
b0 ["
b0 a"
b11111111111111111111111111110110 ^"
b110 ,
b110 .
b11110 X"
b0 V"
b11111111111111111111111111110110 D
b11111111111111111111111111110110 S
b11111111111111111111111111110110 :"
b11111111111111111111111111110110 K"
b11111111111111111111111111110110 ]"
1E
b11 i"
b11 g"
0e"
0h"
1*
1;
b110 2
b110 H
b110 c"
b110 d"
b1110111100100111110110011 >
b1110111100100111110110011 ."
b1110111100100111110110011 k"
b111 B
b111 '"
b111 ;"
b111 Q"
b111 0"
b0 `"
b10110 I
b10110 U
b10110 &"
b11111111111111111111111111110110 d
1}
1&
#420000
0&
#430000
b0 M
b0 ""
b0 8"
b0 G"
b11111 #"
b11111111111111111111111111101000 F"
b11111111111111111111111111101000 X"
b11111111111111111111111111111110 W"
b10110 V"
b11111111111111111111111111101000 B"
b11111111111111111111111111101000 ["
b11111111111111111111111111101000 a"
b10 i"
b10 g"
b110 +
b110 -
b110 3
b110 b"
b110 /
b1110000000000000000000011000000 Z
b1010 y
b1010 I
b1010 U
b1010 &"
b11111111111111111111111111110110 `"
b1 C"
b1 U"
b1 Z"
b11111 <
b11111 V
b11111 !"
b11111 *"
b11111 4"
b100 B
b100 '"
b100 ;"
b100 Q"
b100 0"
1&
#440000
0&
#450000
b11111 $"
b11111111111111111111111111101000 M
b11111111111111111111111111101000 ""
b11111111111111111111111111101000 8"
b11111111111111111111111111101000 G"
b1 i"
b1 g"
0*
0;
1h"
b111 j"
1e"
b110 f"
b100 B
b100 '"
b100 ;"
b100 Q"
b100 0"
b0 I
b0 U
b0 &"
1&
#460000
0&
#470000
b0 #"
16
b0 ^"
b111 ,
b111 .
0E
0G
b0 D
b0 S
b0 :"
b0 K"
b0 ]"
b0 F
b0 T
b0 9"
b0 J"
b0 \"
b0 B"
b0 ["
b0 a"
b10100 F"
b110 -"
b11 i"
b11 g"
0e"
0h"
1*
1;
b111 2
b111 H
b111 c"
b111 d"
b11110000000000000000000011000000 Z
0}
0|
b11111111111111111111111111101000 z
b0 d
b0 c
b11111111111111111111111111101000 I
b11111111111111111111111111101000 U
b11111111111111111111111111101000 &"
b11111 J
b11111 W
b11111 %"
b10100 E"
b10100 H"
b10100 M"
b11111111111111111111111111110110 O"
b11111111111111111111111111110110 P"
0@"
b0 C"
b0 U"
b0 Z"
b1 D"
b1 L"
b1 T"
1A"
b0 <
b0 V
b0 !"
b0 *"
b0 4"
b0 7
b0 X
b0 +"
b0 7"
b0 9
b0 Y
b0 ,"
b0 6"
b0 B
b0 '"
b0 ;"
b0 Q"
b0 0"
b110 >
b110 ."
b110 k"
1&
#480000
0&
#490000
b0 $"
b10100 M
b10100 ""
b10100 8"
b10100 G"
06
0Q
0R
b0 X"
b0 W"
b0 V"
b0 F"
b111 +
b111 -
b111 3
b111 b"
b111 /
b10 i"
b10 g"
0=
05"
08
0:
b0 @
b0 /"
b0 2"
b0 ="
b0 I"
b0 Y"
b0 ?
b0 )"
b0 >"
b0 S"
b0 3"
b0 `"
b0 _"
b0 E"
b0 H"
b0 M"
b0 O"
b0 N"
b0 P"
1&
#500000
0&
#510000
b0 M
b0 ""
b0 8"
b0 G"
0?"
b1 i"
b1 g"
0*
0;
1h"
b1000 j"
1e"
b111 f"
b11110000000000000000000011000001 Z
b10100 ~
b10100 I
b10100 U
b10100 &"
b0 J
b0 W
b0 %"
b0 D"
b0 L"
b0 T"
0A"
1&
#520000
0&
#530000
0L
b0 ,
b0 .
b111 -"
b11 i"
b11 g"
0e"
0h"
1*
1;
b0 2
b0 H
b0 c"
b0 d"
b111 >
b111 ."
b111 k"
b0 I
b0 U
b0 &"
1&
#540000
0&
#550000
b10 i"
b10 g"
b101000111000001100010011 +
b101000111000001100010011 -
b101000111000001100010011 3
b101000111000001100010011 b"
b101000111000001100010011 /
0K
1&
#560000
0&
#570000
b1 i"
b1 g"
0*
0;
1h"
b1 j"
1e"
b101000111000001100010011 f"
1&
#580000
0&
#590000
b1 ,
b1 .
b10011 -"
b11 i"
b11 g"
0e"
0h"
1*
1;
b1 2
b1 H
b1 c"
b1 d"
b101000111000001100010011 >
b101000111000001100010011 ."
b101000111000001100010011 k"
1&
#600000
0&
#610000
b110 #"
16
1R
b1010000000000001110010011 +
b1010000000000001110010011 -
b1010000000000001110010011 3
b1010000000000001110010011 b"
b1010000000000001110010011 /
b10 i"
b10 g"
b10011 ?
b10011 )"
b10011 >"
b10011 S"
b10011 3"
1=
15"
1:
b1010 @
b1010 /"
b1010 2"
b1010 ="
b1010 I"
b1010 Y"
b110 <
b110 V
b110 !"
b110 *"
b110 4"
b111 9
b111 Y
b111 ,"
b111 6"
1&
#620000
0&
#630000
b110 $"
06
1G
b10100 F
b10100 T
b10100 9"
b10100 J"
b10100 \"
b1010 F"
1?"
b1 i"
b1 g"
0*
0;
1h"
b10 j"
1e"
b1010000000000001110010011 f"
b11110000000000000000000010000001 Z
1|
b10100 c
b1010 E"
b1010 H"
b1010 M"
b1010 O"
b1010 P"
b11 D"
b11 L"
b11 T"
1A"
1&
#640000
0&
#650000
1L
b1010 M
b1010 ""
b1010 8"
b1010 G"
b10 ,
b10 .
b10100 X"
b10100 W"
b11110 F"
b11 i"
b11 g"
0e"
0h"
1*
1;
b10 2
b10 H
b10 c"
b10 d"
b1010000000000001110010011 >
b1010000000000001110010011 ."
b1010000000000001110010011 k"
b10100 _"
b11110 E"
b11110 H"
b11110 M"
b10100 N"
1&
#660000
0&
#670000
b11110 M
b11110 ""
b11110 8"
b11110 G"
b111 #"
b101000 F"
b10 i"
b10 g"
b11100110000111000110011 +
b11100110000111000110011 -
b11100110000111000110011 3
b11100110000111000110011 b"
b11100110000111000110011 /
b11110000000000000000000001000001 Z
1K
b1010 I
b1010 U
b1010 &"
b110 J
b110 W
b110 %"
b101000 E"
b101000 H"
b101000 M"
b10100 O"
b10100 P"
b10100 @
b10100 /"
b10100 2"
b10100 ="
b10100 I"
b10100 Y"
b111 <
b111 V
b111 !"
b111 *"
b111 4"
b0 9
b0 Y
b0 ,"
b0 6"
1&
#680000
0&
#690000
b111 $"
b101000 M
b101000 ""
b101000 8"
b101000 G"
b1 i"
b1 g"
0*
0;
1h"
b11 j"
1e"
b11100110000111000110011 f"
b11110 I
b11110 U
b11110 &"
1&
#700000
0&
#710000
b11100 #"
b11 ,
b11 .
b1010 F
b1010 T
b1010 9"
b1010 J"
b1010 \"
b11011 F"
b110011 -"
b11 i"
b11 g"
0e"
0h"
1*
1;
b11 2
b11 H
b11 c"
b11 d"
b11100000000000000000000011000001 Z
b101000 v
b1010 c
b101000 I
b101000 U
b101000 &"
b111 J
b111 W
b111 %"
b11011 E"
b11011 H"
b11011 M"
b111 O"
b111 P"
b111 @
b111 /"
b111 2"
b111 ="
b111 I"
b111 Y"
b11100 <
b11100 V
b11100 !"
b11100 *"
b11100 4"
b110 9
b110 Y
b110 ,"
b110 6"
b11100110000111000110011 >
b11100110000111000110011 ."
b11100110000111000110011 k"
1&
#720000
0&
#730000
b11100 $"
b11011 M
b11011 ""
b11011 8"
b11011 G"
b101000 ^"
1P
b101000 D
b101000 S
b101000 :"
b101000 K"
b101000 ]"
1E
06
1O
0Q
b1010 X"
b1010 W"
b10001 F"
b1000000011000111000111010110011 +
b1000000011000111000111010110011 -
b1000000011000111000111010110011 3
b1000000011000111000111010110011 b"
b1000000011000111000111010110011 /
b10 i"
b10 g"
b110011 ?
b110011 )"
b110011 >"
b110011 S"
b110011 3"
18
b111 7
b111 X
b111 +"
b111 7"
b0 B
b0 '"
b0 ;"
b0 Q"
b0 0"
b1010 _"
b10001 E"
b10001 H"
b10001 M"
b1010 N"
1&
#740000
0&
#750000
b10001 M
b10001 ""
b10001 8"
b10001 G"
16
0P
1Q
0E
b0 ^"
0O
b0 D
b0 S
b0 :"
b0 K"
b0 ]"
b110010 F"
b100010 X"
b101010 W"
b1000 V"
b1 i"
b1 g"
0*
0;
1h"
b100 j"
1e"
b1000000011000111000111010110011 f"
b11011 w
b11011 I
b11011 U
b11011 &"
b11100 J
b11100 W
b11100 %"
b110010 E"
b110010 H"
b110010 M"
b101000 O"
b101000 P"
b101000 `"
b1 D"
b1 L"
b1 T"
b0 B
b0 '"
b0 ;"
b0 Q"
b0 0"
1&
#760000
0&
