Synthesis/waves.vcd
$date
	Fri Aug 16 16:08:28 2024
$end
$version
	Icarus Verilog
$end
$timescale
	1ps
$end
$scope module SOC_tb $end
$var wire 6 ! addr [5:0] $end
$var wire 32 " data [31:0] $end
$var wire 1 # req_valid $end
$var wire 1 $ valid_data $end
$var wire 1 % we $end
$var reg 1 & clk $end
$var reg 1 ' reset $end
$scope module dut $end
$var wire 1 & clk $end
$var wire 1 ' reset $end
$var wire 1 ( we $end
$var wire 1 ) valid_data $end
$var wire 1 * req_valid $end
$var wire 32 + data [31:0] $end
$var wire 6 , addr [5:0] $end
$scope module Mem $end
$var wire 32 - Data [31:0] $end
$var wire 6 . addr [5:0] $end
$var wire 1 & clk $end
$var wire 1 ) data_valid $end
$var wire 1 ' reset $end
$var wire 1 * req_valid $end
$var wire 1 ( WE $end
$var reg 32 / data_reg [31:0] $end
$var reg 1 0 data_valid_reg $end
$var integer 32 1 i [31:0] $end
$upscope $end
$scope module core1 $end
$var wire 32 2 Addr [31:0] $end
$var wire 32 3 Data [31:0] $end
$var wire 1 & clk $end
$var wire 1 ) data_valid $end
$var wire 1 * req_valid $end
$var wire 1 ' reset $end
$var wire 1 4 stall_decode $end
$var wire 1 5 stall_fetch $end
$var wire 1 6 system_stall_wire $end
$var wire 1 ( we $end
$var wire 1 7 we_wire $end
$var wire 1 8 uop_valid_wrtbck $end
$var wire 1 9 uop_valid_fetch $end
$var wire 1 : uop_valid_exe $end
$var wire 1 ; source_not_ready_wire $end
$var wire 5 < rs2_wire [4:0] $end
$var wire 1 = rs2_valid_wire $end
$var wire 5 > rs1_wire [4:0] $end
$var wire 1 ? rs1_valid_wire $end
$var wire 1 @ req_valid_wire $end
$var wire 5 A rd_wire [4:0] $end
$var wire 1 B rd_valid_wire $end
$var wire 32 C opcode_wire [31:0] $end
$var wire 7 D instruction_type_wire [6:0] $end
$var wire 21 E immediate_wire [20:0] $end
$var wire 7 F funct7_wire [6:0] $end
$var wire 3 G funct3_wire [2:0] $end
$var wire 32 H data_src2_wire [31:0] $end
$var wire 1 I data_src2_valid $end
$var wire 32 J data_src1_wire [31:0] $end
$var wire 1 K data_src1_valid $end
$var wire 32 L addr_wire [31:0] $end
$var wire 32 M WrtBck_data_wire [31:0] $end
$var wire 5 N WrtBck_Addr_wire [4:0] $end
$var wire 1 O Wr_En_wire $end
$var wire 32 P Execution_Result_wire [31:0] $end
$scope module ArchRegistersInt_inst $end
$var wire 1 Q ReadP0Conflict $end
$var wire 1 R ReadP1Conflict $end
$var wire 1 S ReadWriteConflict $end
$var wire 1 & clk $end
$var wire 1 ' reset $end
$var wire 1 ; source_not_ready $end
$var wire 1 B we_pi $end
$var wire 1 O we_p2 $end
$var wire 1 I v_p1 $end
$var wire 1 K v_p0 $end
$var wire 1 T re_p1_conflict $end
$var wire 1 = re_p1 $end
$var wire 1 U re_p0_conflict $end
$var wire 1 ? re_p0 $end
$var wire 32 V dout_p1 [31:0] $end
$var wire 32 W dout_p0 [31:0] $end
$var wire 32 X din_p2 [31:0] $end
$var wire 5 Y addr_pi [4:0] $end
$var wire 5 Z addr_p2 [4:0] $end
$var wire 5 [ addr_p1 [4:0] $end
$var wire 5 \ addr_p0 [4:0] $end
$var reg 32 ] V_array [31:0] $end
$var reg 32 ^ a0 [31:0] $end
$var reg 32 _ a1 [31:0] $end
$var reg 32 ` a2 [31:0] $end
$var reg 32 a a3 [31:0] $end
$var reg 32 b a4 [31:0] $end
$var reg 32 c a5 [31:0] $end
$var reg 32 d a6 [31:0] $end
$var reg 32 e a7 [31:0] $end
$var reg 32 f dout_p0_reg [31:0] $end
$var reg 32 g dout_p1_reg [31:0] $end
$var reg 32 h gp [31:0] $end
$var reg 32 i ra [31:0] $end
$var reg 1 j re_p0_reg $end
$var reg 1 k re_p1_reg $end
$var reg 32 l s0 [31:0] $end
$var reg 32 m s1 [31:0] $end
$var reg 32 n s10 [31:0] $end
$var reg 32 o s11 [31:0] $end
$var reg 32 p s2 [31:0] $end
$var reg 32 q s3 [31:0] $end
$var reg 32 r s4 [31:0] $end
$var reg 32 s s5 [31:0] $end
$var reg 32 t s6 [31:0] $end
$var reg 32 u s7 [31:0] $end
$var reg 32 v s8 [31:0] $end
$var reg 32 w s9 [31:0] $end
$var reg 32 x sp [31:0] $end
$var reg 32 y t0 [31:0] $end
$var reg 32 z t1 [31:0] $end
$var reg 32 { t2 [31:0] $end
$var reg 32 | t3 [31:0] $end
$var reg 32 } t4 [31:0] $end
$var reg 32 ~ t5 [31:0] $end
$var reg 32 !" t6 [31:0] $end
$var reg 32 "" tp [31:0] $end
$var reg 1 #" v_p0_reg $end
$var reg 1 $" v_p1_reg $end
$var reg 32 %" zero [31:0] $end
$upscope $end
$scope module WriteBack_inst $end
$var wire 1 & clk $end
$var wire 1 ' reset $end
$var wire 1 8 uop_valid_in $end
$var wire 5 &" Rd_decode [4:0] $end
$var wire 32 '" Execution_Result [31:0] $end
$var reg 5 (" Rd_wb_exe01 [4:0] $end
$var reg 5 )" Rd_wb_exe02 [4:0] $end
$var reg 1 O Wr_En $end
$var reg 5 *" WrtBck_Addr [4:0] $end
$var reg 32 +" WrtBck_Data [31:0] $end
$upscope $end
$scope module decoder_inst $end
$var wire 1 & clk $end
$var wire 3 ," funct3 [2:0] $end
$var wire 7 -" funct7 [6:0] $end
$var wire 7 ." instruction_type [6:0] $end
$var wire 5 /" rd [4:0] $end
$var wire 1 B rd_valid $end
$var wire 1 ' reset $end
$var wire 1 ; source_not_ready $end
$var wire 1 4 system_stall $end
$var wire 1 0" uop_valid_decode $end
$var wire 1 : uop_valid_out $end
$var wire 1 9 uop_valid_in $end
$var wire 1 = rs2_valid $end
$var wire 5 1" rs2 [4:0] $end
$var wire 1 ? rs1_valid $end
$var wire 5 2" rs1 [4:0] $end
$var wire 32 3" instruction [31:0] $end
$var wire 21 4" immediate [20:0] $end
$var reg 3 5" funct3_reg [2:0] $end
$var reg 7 6" funct7_reg [6:0] $end
$var reg 21 7" immediate_reg [20:0] $end
$var reg 7 8" instruction_opcode [6:0] $end
$var reg 7 9" instruction_type_reg [6:0] $end
$var reg 5 :" rd_reg [4:0] $end
$var reg 1 ;" rd_valid_reg $end
$var reg 5 <" rs1_reg [4:0] $end
$var reg 1 ? rs1_valid_reg $end
$var reg 5 =" rs2_reg [4:0] $end
$var reg 1 = rs2_valid_reg $end
$var reg 1 >" uop_valid_out_reg $end
$upscope $end
$scope module execution_inst $end
$var wire 32 ?" Execution_Result [31:0] $end
$var wire 1 & clk $end
$var wire 32 @" data_src1 [31:0] $end
$var wire 32 A" data_src2 [31:0] $end
$var wire 3 B" funct3 [2:0] $end
$var wire 7 C" funct7 [6:0] $end
$var wire 21 D" immediate [20:0] $end
$var wire 7 E" instruction_type [6:0] $end
$var wire 1 ' reset $end
$var wire 1 F" result_valid_exe01 $end
$var wire 1 6 system_stall $end
$var wire 1 G" uop_is_add $end
$var wire 1 H" uop_is_logic $end
$var wire 1 : uop_valid_in $end
$var wire 1 I" uop_is_logic_nq $end
$var wire 1 J" uop_is_add_nq $end
$var wire 32 K" logical_value_exe01 [31:0] $end
$var wire 3 L" ctrl_logic [2:0] $end
$var wire 2 M" ctrl_adder [1:0] $end
$var wire 32 N" add_value_exe01 [31:0] $end
$var reg 32 O" Execution_Result_exe01 [31:0] $end
$var reg 32 P" Execution_Result_exe02 [31:0] $end
$var reg 1 Q" uop_valid_intermediate $end
$var reg 1 8 uop_valid_out $end
$scope module u_Adder_int $end
$var wire 32 R" add_value [31:0] $end
$var wire 1 & clk $end
$var wire 21 S" immediate [20:0] $end
$var wire 1 ' reset $end
$var wire 32 T" src1 [31:0] $end
$var wire 32 U" src2 [31:0] $end
$var wire 1 : uop_valid_in $end
$var wire 2 V" add_type [1:0] $end
$var reg 32 W" add_value_reg [31:0] $end
$var reg 32 X" adder_src1 [31:0] $end
$var reg 32 Y" adder_src2 [31:0] $end
$var reg 32 Z" src2_inp [31:0] $end
$upscope $end
$scope module u_Alu_ctrl $end
$var wire 1 & clk $end
$var wire 3 [" funct3 [2:0] $end
$var wire 7 \" funct7 [6:0] $end
$var wire 7 ]" instruction_type [6:0] $end
$var wire 1 ' reset $end
$var wire 1 : uop_valid_in $end
$var reg 2 ^" ctrl_adder [1:0] $end
$var reg 3 _" ctrl_logic [2:0] $end
$var reg 1 J" uop_is_add $end
$var reg 1 I" uop_is_logic $end
$upscope $end
$scope module u_logical_unit $end
$var wire 32 `" And_result [31:0] $end
$var wire 32 a" Or_result [31:0] $end
$var wire 32 b" Xor_result [31:0] $end
$var wire 1 & clk $end
$var wire 21 c" immediate [20:0] $end
$var wire 3 d" logic_type [2:0] $end
$var wire 32 e" logical_value [31:0] $end
$var wire 1 ' reset $end
$var wire 32 f" src1 [31:0] $end
$var wire 32 g" src2 [31:0] $end
$var wire 1 Q" uop_valid_in $end
$var wire 32 h" logical_src2_inp [31:0] $end
$var reg 32 i" logical_src1 [31:0] $end
$var reg 32 j" logical_src2 [31:0] $end
$var reg 32 k" logical_value_reg [31:0] $end
$upscope $end
$upscope $end
$scope module u_fetch $end
$var wire 32 l" Data [31:0] $end
$var wire 1 & clk $end
$var wire 1 ) data_valid $end
$var wire 1 ' reset $end
$var wire 1 5 system_stall $end
$var wire 1 7 we $end
$var wire 1 @ req_valid $end
$var wire 3 m" Addr [2:0] $end
$var reg 3 n" Addr_reg [2:0] $end
$var reg 1 o" IR_v $end
$var reg 32 p" InstructionRegister [31:0] $end
$var reg 2 q" NextState [1:0] $end
$var reg 1 r" PC_v $end
$var reg 2 s" PresentState [1:0] $end
$var reg 32 t" ProgramCounter [31:0] $end
$var reg 32 u" opcode [31:0] $end
$var reg 1 @ req_valid_reg $end
$var reg 1 9 uop_valid_out $end
$var reg 1 7 we_reg $end
$upscope $end
$upscope $end
$upscope $end
$upscope $end
$scope module SOC_tb $end
$scope module dut $end
$upscope $end
$upscope $end
$enddefinitions $end
#0
$dumpvars
bx u"
bx t"
bx s"
xr"
b0 q"
bx p"
xo"
bx n"
bx m"
bx l"
bx k"
bx j"
bx i"
bx h"
bx g"
bx f"
bx e"
bx d"
bx c"
bx b"
bx a"
bx `"
bx _"
bx ^"
bx ]"
bx \"
bx ["
bx Z"
bx Y"
bx X"
bx W"
bx V"
bx U"
bx T"
bx S"
bx R"
0Q"
b0 P"
b0 O"
bx N"
bx M"
bx L"
bx K"
xJ"
xI"
0H"
0G"
0F"
bx E"
bx D"
bx C"
bx B"
bx A"
bx @"
b0 ?"
x>"
bx ="
bx <"
x;"
bx :"
bx 9"
bx 8"
bx 7"
bx 6"
bx 5"
bx 4"
bx 3"
bx 2"
bx 1"
x0"
bx /"
bx ."
bx -"
bx ,"
bx +"
bx *"
bx )"
bx ("
b0 '"
bx &"
bx %"
x$"
x#"
bx ""
bx !"
bx ~
bx }
bx |
bx {
bx z
bx y
bx x
bx w
bx v
bx u
bx t
bx s
bx r
bx q
bx p
bx o
bx n
bx m
bx l
xk
xj
bx i
bx h
bx g
bx f
bx e
bx d
bx c
bx b
bx a
bx `
bx _
bx ^
bx ]
bx \
bx [
bx Z
bx Y
bx X
bx W
bx V
xU
xT
xS
xR
xQ
b0 P
xO
bx N
bx M
b0xxx L
xK
bx J
xI
bx H
bx G
bx F
bx E
bx D
bx C
xB
bx A
x@
x?
bx >
x=
bx <
x;
x:
x9
08
x7
z6
x5
x4
bx 3
b0xxx 2
b1000000 1
00
bx /
b0xxx .
bx -
b0xxx ,
bx +
x*
0)
x(
1'
0&
z%
z$
z#
bz "
bz !
$end
#10000
0I
0S
0K
0T
0U
b0 h"
b0 b"
b0 a"
b0 `"
0R
0Q
b0 H
b0 V
b0 A"
b0 U"
b0 g"
b0 J
b0 W
b0 @"
b0 T"
b0 f"
b1000000 1
x9
b0 C
b0 3"
b0 u"
b0 8"
x>"
0B
0;"
0=
0?
b0 A
b0 Y
b0 &"
b0 /"
b0 :"
b0 <
b0 [
b0 1"
b0 ="
b0 >
b0 \
b0 2"
b0 <"
b0 E
b0 4"
b0 7"
b0 D"
b0 S"
b0 c"
b0 F
b0 -"
b0 C"
b0 \"
b0 6"
b0 G
b0 ,"
b0 B"
b0 ["
b0 5"
b0 D
b0 ."
b0 E"
b0 ]"
b0 9"
b0 L"
b0 _"
b0 d"
b0 M"
b0 V"
b0 ^"
b0 K"
b0 e"
b0 k"
b0 j"
b0 i"
bx Y"
bx X"
b0 )"
bx ("
0O
b0 M
b0 X
b0 +"
b0 N
b0 Z
b0 *"
0k
xj
b0 o
b0 n
b0 w
b0 v
b0 u
b0 t
b0 s
b0 r
b0 q
b0 p
b0 e
b0 d
b0 c
b0 b
b0 a
b0 `
b0 _
b0 ^
b0 g
b0 f
b0 m
b0 l
b0 !"
b0 ~
b0 }
b0 |
b0 {
b0 z
b0 y
b0 ""
b0 h
b0 x
b0 i
b0 %"
0$"
0#"
b11111111111111111111111111111111 ]
1&
#20000
0&
#30000
04
05
0;
b1000000 1
0j
b0 ("
bx Y"
b0 X"
x>"
x9
1&
#40000
0&
#50000
xF"
xH"
xG"
xQ"
b0 s"
1&
0'
#60000
0&
#70000
x8
b1 s"
b1 q"
0(
07
0o"
1r"
b0 p"
b0 t"
1&
#80000
0&
#90000
b0 ,
b0 .
00"
1)
10
b11 s"
b11 q"
0r"
1*
1@
b0 2
b0 L
b0 m"
b0 n"
09
1&
#100000
0&
#110000
0:
b10 s"
b10 q"
b101000000000001100010011 +
b101000000000001100010011 -
b101000000000001100010011 3
b101000000000001100010011 l"
b101000000000001100010011 /
0>"
1&
#120000
0&
#130000
0F"
0H"
0G"
0Q"
b1 s"
b1 q"
0*
0@
1r"
b1 t"
1o"
b101000000000001100010011 p"
1&
#140000
0&
#150000
08
b1 ,
b1 .
10"
b11 s"
b11 q"
0o"
0r"
1*
1@
b1 2
b1 L
b1 m"
b1 n"
19
b101000000000001100010011 C
b101000000000001100010011 3"
b101000000000001100010011 u"
1&
#160000
0&
#170000
00"
1:
1U
b1010000000000001110010011 +
b1010000000000001110010011 -
b1010000000000001110010011 3
b1010000000000001110010011 l"
b1010000000000001110010011 /
b10 s"
b10 q"
09
1>"
b10011 D
b10011 ."
b10011 E"
b10011 ]"
b10011 9"
1B
1;"
1?
b1010 E
b1010 4"
b1010 7"
b1010 D"
b1010 S"
b1010 c"
b110 A
b110 Y
b110 &"
b110 /"
b110 :"
b10011 8"
1&
#180000
0&
#190000
1F"
b1010 O"
1G"
1Q"
b110 ("
00"
04
05
0;
1K
0:
b1 s"
b1 q"
0*
0@
1r"
b10 t"
1o"
b1010000000000001110010011 p"
b11111111111111111111111110111111 ]
1#"
1j
b1010 N"
b1010 R"
b1010 W"
b1010 Y"
b1010 Z"
0I"
b11 M"
b11 V"
b11 ^"
1J"
0>"
1&
#200000
0&
#210000
0F"
0G"
18
0Q"
b1010 P
b1010 '"
b1010 ?"
b1010 P"
b110 )"
b10 ,
b10 .
10"
b11 s"
b11 q"
0o"
0r"
1*
1@
b10 2
b10 L
b10 m"
b10 n"
19
b1010000000000001110010011 C
b1010000000000001110010011 3"
b1010000000000001110010011 u"
1&
#220000
0&
#230000
08
b111 ("
1:
00"
b10 s"
b10 q"
b11100110000111000110011 +
b11100110000111000110011 -
b11100110000111000110011 3
b11100110000111000110011 l"
b11100110000111000110011 /
b11111111111111111111111101111111 ]
b1010 z
1O
b1010 M
b1010 X
b1010 +"
b110 N
b110 Z
b110 *"
1>"
b10100 E
b10100 4"
b10100 7"
b10100 D"
b10100 S"
b10100 c"
b111 A
b111 Y
b111 &"
b111 /"
b111 :"
09
1&
#240000
0&
#250000
1F"
b10100 O"
1G"
1Q"
b111 )"
0:
b1 s"
b1 q"
0*
0@
1r"
b11 t"
1o"
b11100110000111000110011 p"
0>"
b10100 N"
b10100 R"
b10100 W"
b10100 Y"
b10100 Z"
0O
1&
#260000
0&
#270000
0F"
0G"
b10100 P
b10100 '"
b10100 ?"
b10100 P"
0Q"
18
b11 ,
b11 .
10"
b11 s"
b11 q"
0o"
0r"
1*
1@
b11 2
b11 L
b11 m"
b11 n"
19
b11100110000111000110011 C
b11100110000111000110011 3"
b11100110000111000110011 u"
1&
#280000
0&
#290000
08
14
15
1;
b10100 h"
1S
b10100 H
b10100 V
b10100 A"
b10100 U"
b10100 g"
1I
1R
10"
0:
0T
b1000000011000111000111010110011 +
b1000000011000111000111010110011 -
b1000000011000111000111010110011 3
b1000000011000111000111010110011 l"
b1000000011000111000111010110011 /
b10 s"
b10 q"
09
1>"
b110011 D
b110011 ."
b110011 E"
b110011 ]"
b110011 9"
1=
b11100 A
b11100 Y
b11100 &"
b11100 /"
b11100 :"
b111 <
b111 [
b111 1"
b111 ="
b110 >
b110 \
b110 2"
b110 <"
b0 G
b0 ,"
b0 B"
b0 ["
b0 5"
b110011 8"
1O
b10100 M
b10100 X
b10100 +"
b111 N
b111 Z
b111 *"
1&
#300000
0&
#310000
b11100 ("
1:
00"
04
05
0;
b0 h"
0S
1T
b0 H
b0 V
b0 A"
b0 U"
b0 g"
0I
b1010 J
b1010 W
b1010 @"
b1010 T"
b1010 f"
0R
b10100 b"
b10100 a"
b11101111111111111111111101111111 ]
b1010 f
0O
b10100 j"
1&
#320000
0&
#330000
1F"
b11110 O"
1G"
1Q"
b11100 )"
0:
b1010 b"
b1010 a"
b1 s"
b1 q"
0*
0@
1r"
b100 t"
1o"
b1000000011000111000111010110011 p"
0>"
b1 M"
b1 V"
b1 ^"
b0 j"
b1010 i"
b11110 N"
b11110 R"
b11110 W"
b1010 X"
1&
#340000
0&
#350000
0F"
0G"
b11110 P
b11110 '"
b11110 ?"
b11110 P"
0Q"
18
b100 ,
b100 .
10"
b11 s"
b11 q"
0o"
0r"
1*
1@
b100 2
b100 L
b100 m"
b100 n"
19
b1000000011000111000111010110011 C
b1000000011000111000111010110011 3"
b1000000011000111000111010110011 u"
1&
#360000
0&
#370000
08
00"
1:
b1110111100111111100110011 +
b1110111100111111100110011 -
b1110111100111111100110011 3
b1110111100111111100110011 l"
b1110111100111111100110011 /
b10 s"
b10 q"
09
1>"
b100000 F
b100000 -"
b100000 C"
b100000 \"
b100000 6"
b11101 A
b11101 Y
b11101 &"
b11101 /"
b11101 :"
b110 <
b110 [
b110 1"
b110 ="
b111 >
b111 \
b111 2"
b111 <"
b0 G
b0 ,"
b0 B"
b0 ["
b0 5"
1O
b11110 M
b11110 X
b11110 +"
b11100 N
b11100 Z
b11100 *"
1&
#380000
0&
#390000
1F"
b1010 O"
1G"
1Q"
b11101 ("
10"
14
15
1;
b1010 h"
1I
0K
b1010 H
b1010 V
b1010 A"
b1010 U"
b1010 g"
b0 J
b0 W
b0 @"
b0 T"
b0 f"
0:
b1 s"
b1 q"
0*
0@
1r"
b101 t"
1o"
b1110111100111111100110011 p"
b11001111111111111111111101111111 ]
1$"
0#"
b1010 g
b0 f
0O
b1010 N"
b1010 R"
b1010 W"
b0 Y"
b0 Z"
b10 M"
b10 V"
b10 ^"
0>"
1&
#400000
0&
#410000
0F"
0G"
18
0Q"
b1010 P
b1010 '"
b1010 ?"
b1010 P"
b11101 )"
b0 O"
19
b1110111100111111100110011 C
b1110111100111111100110011 3"
b1110111100111111100110011 u"
1>"
b1010 j"
b0 i"
b0 N"
b0 R"
b0 W"
b0 X"
1&
#420000
0&
#430000
b0 P
b0 '"
b0 ?"
b0 P"
08
b1010 }
1O
b1010 M
b1010 X
b1010 +"
b11101 N
b11101 Z
b11101 *"
1&
#440000
0&
#450000
0O
1&
